<?xml version="1.0" encoding="utf-8"?>
<!-- Generator: Adobe Illustrator 19.2.1, SVG Export Plug-In . SVG Version: 6.00 Build 0)  -->
<svg version="1.1" id="Слой_1" xmlns="http://www.w3.org/2000/svg" xmlns:xlink="http://www.w3.org/1999/xlink" x="0px" y="0px"
	 viewBox="0 0 197 82" style="enable-background:new 0 0 197 82;" xml:space="preserve">
<style type="text/css">
	.st0{fill:#FFFFFF;}
</style>
<g>
	<path class="st0" d="M43.7,39.3c1.5,13.7,3,27.4,4.5,41.1c-3.6,1.3-5.2,0.6-5.5-3.2c-0.6-7.7-1.6-15.4-2.5-24.5
		c-5.2,9.8-9.7,18.5-14.7,28c-4.9-9.5-9.3-18.2-14.3-27.9C10,62.8,9,71.6,8,80.7c-1.6,0-3,0-4.8,0c1.7-14,3.3-27.8,5-41.5
		c0.3-0.1,0.7-0.2,1-0.3C14.5,49.3,19.9,59.7,25.7,71c5.8-11,11.4-21.5,16.9-32.1C42.9,39,43.3,39.2,43.7,39.3z"/>
	<path class="st0" d="M112.8,60c0-12.4,9.3-21.8,21.7-21.9c12.1-0.1,21.3,9.3,21.3,21.6c-0.1,12.2-9.8,22.3-21.7,22.3
		C122.5,82,112.8,72,112.8,60z M150.3,60.1c0.1-9.6-6.5-17-15.6-17.2c-9.3-0.2-16.5,7.1-16.6,16.8C118,69.2,125.3,77,134.3,77
		C143.3,77,150.2,69.7,150.3,60.1z"/>
	<path class="st0" d="M162.4,37.7c9.3,10.9,17.9,21,27.3,32.1c0-11,0-20.8,0-30.6c0.5-0.3,1.1-0.7,1.6-1c1.1,1.1,3.2,2.2,3.2,3.4
		c0.2,12.8,0.1,25.6,0,38.4c0,0.2-0.4,0.5-0.9,1.2C185,71,176.4,61,166.9,49.8c0,6.1,0,10.9,0,15.8c0,4,0.1,8,0,12
		c-0.1,3.3-0.1,3.3-4.4,3.1C162.4,66.7,162.4,52.7,162.4,37.7z"/>
	<path class="st0" d="M31.6,0.3c2,0,3.8,0,6.2,0c0,4.6,0,9.1,0,14c5,0,9.4,0,14.5,0c0-4.5,0-9.1,0-13.9c2.4,0,4.2,0,6.4,0
		c0,11.2,0,22.6,0,34.3c-1.8,0-3.5,0-6,0c0-4.6,0-9.1,0-14c-5.2,0-9.7,0-14.7,0c0,4.7,0,9.1,0,13.9c-2.3,0-4.2,0-6.4,0
		C31.6,23.2,31.6,11.8,31.6,0.3z"/>
	<path class="st0" d="M122.1,34.6c-11.5,2.6-10.8-9.1-17.2-12.9c0,4.3,0,8.4,0,13c-2.4,0.1-4.1,0.2-6.3,0.3c0-11.7,0-23,0-34.3
		c9.6-1.6,16,0.2,18.4,5.1c2.3,4.8,0.9,9.2-4.9,14.6C115.3,24.9,118.5,29.4,122.1,34.6z M105.2,6.2c0,3.4,0,6.6,0,10
		c4.5-0.2,6.6-2.2,6.1-6C110.9,6.7,108.5,5.6,105.2,6.2z"/>
	<path class="st0" d="M187.3,20.4c3.3,4.7,6.5,9.1,9.7,13.7c-6.4,1.7-6.5,1.6-9.8-3.4c-2-3-4-6.1-6.9-10.4c0,5.6,0,9.7,0,14.3
		c-2.3,0.1-4,0.3-6.2,0.4c0-11.6,0-23,0-34.3c8.9-1.8,15.7,0.1,18.2,5C194.5,10.4,193.1,15,187.3,20.4z M180,16.1
		c4.6,0,7-1.9,6.6-5.9c-0.4-3.6-3-4.6-6.6-4.1C180,9.6,180,12.6,180,16.1z"/>
	<path class="st0" d="M93.6,34.5c-4.8,1.4-7.8,0.5-8.7-4.3c-0.8-4.2-4-3.6-7-3.6c-3.1-0.1-6.1-0.3-6.9,3.8c-0.9,4.4-3.6,5.5-8.4,4.1
		c1-2.4,2-4.8,3-7.1C69,19,72.5,10.7,76,2.4c0.4-0.9,1.4-2.1,2.2-2.2c0.7-0.1,2,1.1,2.3,1.9C84.9,12.8,89.1,23.4,93.6,34.5z
		 M74.8,20.9c2.6-0.1,4.2-0.2,6.3-0.4c-1-2.7-1.8-4.8-3-8.1C76.8,15.8,76,18,74.8,20.9z"/>
	<path class="st0" d="M51.8,80.5c5.9-14.3,11.7-28.2,18-43.4C76,52.3,81.6,66.3,87.3,80.4c-3.7,1.4-5.9,0.6-6.8-3
		c-0.4-1.6-1.3-3.1-1.8-4.7c-0.8-2.8-2.4-4.2-5.4-3.7c-0.6,0.1-1.3,0.1-2,0c-7-1.2-11.8,0.8-13.2,8.5C57.6,80.9,55.4,81.8,51.8,80.5
		z M75.6,64.7c-2-5.3-3.8-10-6-15.8c-2.3,5.9-4.1,10.7-6,15.8C67.7,64.7,71.1,64.7,75.6,64.7z"/>
	<path class="st0" d="M25.7,0.4c0,1.9,0,3.5,0,5.5c-5.8,0.3-12.2-1-15.9,4.7c-1.5,2.3-2.2,5.6-2.1,8.4c0.4,7.8,5.2,10.4,17.9,10.2
		c0.1,1.7,0.2,3.4,0.2,4.9C17,36.8,8.7,34.9,4.1,28.9c-4.6-6.1-5.4-12.7-1.9-19.6C5.9,2.1,13.3-0.7,25.7,0.4z"/>
	<path class="st0" d="M157.3,6.3c0,2.7,0,5.2,0,8c3,0.2,5.9,0.4,9.1,0.6c0.1,1.6,0.2,3,0.4,5c-3.2,0.2-6.1,0.3-9.4,0.5
		c0,2.8,0,5.5,0,8.7c3.3,0,6.6,0,10.2,0c0.1,2,0.3,3.6,0.4,5.5c-5.9,0-11.4,0-17.2,0c0-11.4,0-22.6,0-34.2c5.4,0,10.8,0,16.6,0
		c0.1,1.6,0.2,3.2,0.4,5.3C164.2,5.9,160.9,6.1,157.3,6.3z"/>
	<path class="st0" d="M106.6,43.1c-4.1,0-8.9-0.8-10.6,4.3c-1.7,4.9,2,7.6,5.2,10.4c1.5,1.3,3,2.6,4.3,4.1c4,4.6,4.4,10.3,1.3,14.7
		c-3.1,4.2-10.6,6.6-15.3,4.4c-1.1-0.5-1.5-2.5-2.9-4.9c3.1,0.4,4.9,1.2,6.2,0.7c2.8-1,6.7-2,7.6-4.1c0.9-2.1-0.5-6-2-8.4
		c-1.6-2.6-4.7-4.2-6.8-6.5c-3.8-4.1-4.4-9-2.2-13.4c2.2-4.2,7.6-7,12.7-6c1.4,0.3,2.4,2,3.6,3.1C107.4,42.1,107,42.6,106.6,43.1z"
		/>
	<path class="st0" d="M130.8,6.3c-3.5-0.2-6.2-0.3-9.3-0.5c0-1.9,0-3.6,0-5.5c8.3,0,16.3,0,24.8,0c0,1.8,0,3.5,0,5.5
		c-3,0.2-5.7,0.3-9,0.5c0,9.4,0,18.7,0,28.4c-2.2,0.1-4,0.2-6.4,0.3C130.8,25.3,130.8,16,130.8,6.3z"/>
</g>
</svg>
