<?xml version="1.0" encoding="utf-8"?>
<!-- Generator: Adobe Illustrator 19.2.1, SVG Export Plug-In . SVG Version: 6.00 Build 0)  -->
<svg version="1.1" id="Слой_1" xmlns="http://www.w3.org/2000/svg" xmlns:xlink="http://www.w3.org/1999/xlink" x="0px" y="0px"
	 viewBox="0 0 10 10.2" style="enable-background:new 0 0 10 10.2;" xml:space="preserve">
<style type="text/css">
	.st0{fill:#FFBC36;}
</style>
<g>
	<path class="st0" d="M7.7,8.6l1.1,0l1.2-1.9L9.4,5.8c0.1-0.4,0.1-0.8,0-1.2l0.1-0.1L10,3.7L8.9,1.8l-1.1,0C7.7,1.6,7.5,1.5,7.3,1.4
		C7.1,1.3,6.9,1.2,6.8,1.1l-0.5-1L4,0.1L3.4,1C3,1.2,2.7,1.4,2.3,1.6l-1.1,0L0.1,3.4l0.5,1c-0.1,0.4-0.1,0.8,0,1.2L0,6.6l1.1,1.9
		l1.1,0c0.2,0.1,0.3,0.3,0.5,0.4C2.9,9,3.1,9.1,3.3,9.1l0.5,0.9l2.2,0l0.6-0.9c0.1,0,0.2-0.1,0.3-0.1C7.1,9,7.4,8.8,7.7,8.6z
		 M7.4,6.6C7.2,6.9,6.9,7.2,6.6,7.4C5.7,8,4.5,8.1,3.5,7.5C2.2,6.7,1.7,5,2.6,3.7c0.8-1.3,2.6-1.7,3.9-0.9c0.8,0.5,1.3,1.3,1.4,2.2
		C7.9,5.5,7.8,6.1,7.4,6.6z"/>
</g>
</svg>
